{
  "project_info": {
    "project_number": "982265184100",
    "firebase_url": "https://hoxymetoo-1566909735423.firebaseio.com",
    "project_id": "hoxymetoo-1566909735423",
    "storage_bucket": "hoxymetoo-1566909735423.appspot.com"
  },
  "client": [
    {
      "client_info": {
        "mobilesdk_app_id": "1:982265184100:android:cd687f7c6b757603bf4471",
        "android_client_info": {
          "package_name": "com.welfarern"
        }
      },
      "oauth_client": [
        {
          "client_id": "982265184100-qe0la0iergi4oikipj5eq33a0ngip0bi.apps.googleusercontent.com",
          "client_type": 3
        }
      ],
      "api_key": [
        {
          "current_key": "AIzaSyA9PS8q3Ar6y1JfHCscc1E4mKp65FSaI9g"
        }
      ],
      "services": {
        "appinvite_service": {
          "other_platform_oauth_client": [
            {
              "client_id": "982265184100-qe0la0iergi4oikipj5eq33a0ngip0bi.apps.googleusercontent.com",
              "client_type": 3
            },
            {
              "client_id": "982265184100-emqhhpirmckbqigjqjgg39b4jgicd87v.apps.googleusercontent.com",
              "client_type": 2,
              "ios_info": {
                "bundle_id": "org.reactjs.native.example.welfareRN"
              }
            }
          ]
        }
      }
    }
  ],
  "configuration_version": "1"
}